{
    
        "salas": [
            {
                "id_sala": 1,
                "name": "Sala 1"
            },
            {
                "id_sala": 2,
                "name": "Sala 2"
            }
		],
		
		"mesas": [
    	    {
      		    "id_mesa": 1,
      		    "sala": 1,
			    "designcao": "1",
			    "estado": 0,
			    "pagamento":false
    	    },
    	    {
      		    "id_mesa": 2,
      		    "sala": 1,
			    "designcao": "2",
			    "estado": 0,
			    "pagamento":false
    	    },
   		    {
      		    "id_mesa": 3,
      		    "sala": 2,
			    "designcao": "3",
			    "estado": 0,
			    "pagamento":false
    	    },
    	    {
      		    "id_mesa": 4,
      		    "sala": 2,
			    "designcao": "4",
			    "estado": 0,
			    "pagamento":false
    	    }
		],
		"familias":[
			{
				"codigo": 1,				
				"designacao":"Tostas e Sandes",				
				"designacaoabrev":"Tostas e Sandes",
				"imagem": "/img/fam1.jpg",
				"tamanhoimg":0,				
				"mostranopos":true,			
				"mostranopos_rest":true				
			},
			{
				"codigo": 2,				
				"designacao":"Pratos",				
				"designacaoabrev":"Pratos",
				"imagem": "/img/fam2.jpg",
				"tamanhoimg":0,				
				"mostranopos":true,			
				"mostranopos_rest":true				
			},
			{
				"codigo": 3,				
				"designacao":"Bebidas",				
				"designacaoabrev":"Bebidas",
				"imagem": "/img/fam3.jpg",
				"tamanhoimg":0,				
				"mostranopos":true,			
				"mostranopos_rest":true				
			}
		],
		"subfamilias":[
			{
				"codigo": 1,
				"familia": 1,				
				"designacao":"Tradicional",				
				"abreviada":"Tradicional",
				"imagem": "/img/tradicional.png",
				"tamanhoimg":0,				
				"mostranopos":true,			
				"mostranopos_rest":true				
			},
			{
				"codigo": 1,
				"familia": 2,				
				"designacao":"Especialidades",				
				"abreviada":"Especialidades",
				"imagem": "/img/gourmet.jpg",
				"tamanhoimg":0,				
				"mostranopos":true,			
				"mostranopos_rest":true				
			}
			,
			{
				"codigo": 2,
				"familia": 1,				
				"designacao":"Carne",				
				"abreviada":"Carne",
				"imagem": "/img/carne.jpg",
				"tamanhoimg":0,				
				"mostranopos":true,			
				"mostranopos_rest":true				
			}
			,
			{
				"codigo": 2,
				"familia": 2,				
				"designacao":"Peixe",				
				"abreviada":"Peixe",
				"imagem": "/img/peixe.jpg",
				"tamanhoimg":0,				
				"mostranopos":true,			
				"mostranopos_rest":true				
			}			
		],
		"precario": [
            {
                "codigo": 1,
                "designacao":"PVP"
			},
			{
                "codigo": 2,
                "designacao":"Meia-Dose"
			},
			{
                "codigo": 3,
                "designacao":"Dose"
            }
		],
		"produtos":[
			{
				"codigo":"1",
				"designacao": "Tosta Fiambre",
				"designacaoabrev": "Tosta de Fiambre",
				"foto" : "/img/tostafiambre.jpg",
				"familia_x" : true,
				"familia": 1,
				"subfamilia_x":true,
				"subfamilia":1,
				"artigopos":false,
				"artigopos_rest":true,
				"gerapedidos":true,
				"obrigagosto":0,
				"lasteditdate":null,
				"creationdate" : null,
				"tipoproduto": "P",
				"artcomposto" : 0,			
				"destinoPedido" : null
			},{
				"codigo":"2",
				"designacao": "Tosta Queijo",
				"designacaoabrev": "Tosta de Queijo",
				"foto" : "/img/tostaqueijo.jpg",
				"familia_x" : true,
				"familia": 1,
				"subfamilia_x":true,
				"subfamilia":1,
				"artigopos":false,
				"artigopos_rest":true,
				"gerapedidos":true,
				"obrigagosto":0,
				"lasteditdate":null,
				"creationdate" : null,
				"tipoproduto": "P",
				"artcomposto" : 0,			
				"destinoPedido" : null
			},
			{
				"codigo":"3",
				"designacao": "Tosta Mista",
				"designacaoabrev": "Tosta Mista",
				"foto" : "/img/tostamista.jpg",
				"familia_x" : true,
				"familia": 1,
				"subfamilia_x":true,
				"subfamilia":1,
				"artigopos":false,
				"artigopos_rest":true,
				"gerapedidos":true,
				"obrigagosto":0,
				"lasteditdate":null,
				"creationdate" : null,
				"tipoproduto": "P",
				"artcomposto" : 0,			
				"destinoPedido" : null
			},
			{
				"codigo":"4",
				"designacao": "Tosta do Mar",
				"designacaoabrev": "Tosta do Mar",
				"foto" : "/img/tostamar.jpg",
				"familia_x" : true,
				"familia": 1,
				"subfamilia_x":true,
				"subfamilia":2,
				"artigopos":false,
				"artigopos_rest":true,
				"gerapedidos":true,
				"obrigagosto":0,
				"lasteditdate":null,
				"creationdate" : null,
				"tipoproduto": "P",
				"artcomposto" : 0,			
				"destinoPedido" : null
			},
			{
				"codigo":"5",
				"designacao": "Tosta Alentejana",
				"designacaoabrev": "Tosta Alentejana",
				"foto" : "/img/tostaalentejana.jpg",
				"familia_x" : true,
				"familia": 1,
				"subfamilia_x":true,
				"subfamilia":2,
				"artigopos":false,
				"artigopos_rest":true,
				"gerapedidos":true,
				"obrigagosto":0,
				"lasteditdate":null,
				"creationdate" : null,
				"tipoproduto": "P",
				"artcomposto" : 0,			
				"destinoPedido" : null
			},
			{
				"codigo":"6",
				"designacao": "Porco á Alentejana",
				"designacaoabrev": "Porco á Alentejana",
				"foto" : "/img/porcoalentejana.jpg",
				"familia_x" : true,
				"familia": 2,
				"subfamilia_x":true,
				"subfamilia":1,
				"artigopos":false,
				"artigopos_rest":true,
				"gerapedidos":true,
				"obrigagosto":0,
				"lasteditdate":null,
				"creationdate" : null,
				"tipoproduto": "P",
				"artcomposto" : 0,			
				"destinoPedido" : null
			},
			{
				"codigo":"7",
				"designacao": "Bacalhau á Brás",
				"designacaoabrev": "Bacalhau á Brás",
				"foto" : "/img/abras.jpg",
				"familia_x" : true,
				"familia": 2,
				"subfamilia_x":true,
				"subfamilia":2,
				"artigopos":false,
				"artigopos_rest":true,
				"gerapedidos":true,
				"obrigagosto":0,
				"lasteditdate":null,
				"creationdate" : null,
				"tipoproduto": "P",
				"artcomposto" : 0,			
				"destinoPedido" : null
			},
			{
				"codigo":"8",
				"designacao": "Água",
				"designacaoabrev": "Água 1,5lt",
				"foto" : "/img/water.jpg",
				"familia_x" : true,
				"familia": 3,
				"subfamilia_x":false,
				"subfamilia":0,
				"artigopos":false,
				"artigopos_rest":true,
				"gerapedidos":true,
				"obrigagosto":0,
				"lasteditdate":null,
				"creationdate" : null,
				"tipoproduto": "P",
				"artcomposto" : 0,			
				"destinoPedido" : null
			},
			{
				"codigo":"9",
				"designacao": "Vinho",
				"designacaoabrev": "Vinho 1lt",
				"foto" : "/img/wine.jpg",
				"familia_x" : true,
				"familia": 3,
				"subfamilia_x":false,
				"subfamilia":0,
				"artigopos":false,
				"artigopos_rest":true,
				"gerapedidos":true,
				"obrigagosto":0,
				"lasteditdate":null,
				"creationdate" : null,
				"tipoproduto": "P",
				"artcomposto" : 0,			
				"destinoPedido" : null
			},
			{
				"codigo":"10",
				"designacao": "Café",
				"designacaoabrev": "Café",
				"foto" : "/img/cafe.png",
				"familia_x" : true,
				"familia": 3,
				"subfamilia_x":false,
				"subfamilia":0,
				"artigopos":false,
				"artigopos_rest":true,
				"gerapedidos":true,
				"obrigagosto":1,
				"lasteditdate":null,
				"creationdate" : null,
				"tipoproduto": "P",
				"artcomposto" : 0,			
				"destinoPedido" : null
			},{
				"codigo":"11",
				"designacao": "Escolha do Chefe",
				"designacaoabrev": "Escolha do Chefe",
				"foto" : "/img/tostachefe.jpg",
				"familia_x" : true,
				"familia": 1,
				"subfamilia_x":false,
				"subfamilia":0,
				"artigopos":false,
				"artigopos_rest":true,
				"gerapedidos":true,
				"obrigagosto":0,
				"lasteditdate":null,
				"creationdate" : null,
				"tipoproduto": "P",
				"artcomposto" : 0,			
				"destinoPedido" : null
			},
			{
				"codigo":"12",
				"designacao": "Menu Tosta",
				"designacaoabrev": "Menu Tosta",
				"foto" : "/img/menutosta.jpg",
				"familia_x" : true,
				"familia": 1,
				"subfamilia_x":false,
				"subfamilia":0,
				"artigopos":false,
				"artigopos_rest":true,
				"gerapedidos":true,
				"obrigagosto":0,
				"lasteditdate":null,
				"creationdate" : null,
				"tipoproduto": "P",
				"artcomposto" : 1,			
				"destinoPedido" : null
			},{
				"codigo":"13",
				"designacao": "Bebida",
				"designacaoabrev": "Bebida",
				"foto" : null,
				"familia_x" : true,
				"familia": 1,
				"subfamilia_x":false,
				"subfamilia":0,
				"artigopos":false,
				"artigopos_rest":false,
				"gerapedidos":true,
				"obrigagosto":0,
				"lasteditdate":null,
				"creationdate" : null,
				"tipoproduto": "P",
				"artcomposto" : 0,			
				"destinoPedido" : null
			},
			{
				"codigo":"14",
				"designacao": "Tosta",
				"designacaoabrev": "Tosta",
				"foto" : null,
				"familia_x" : true,
				"familia": 1,
				"subfamilia_x":false,
				"subfamilia":0,
				"artigopos":false,
				"artigopos_rest":false,
				"gerapedidos":true,
				"obrigagosto":0,
				"lasteditdate":null,
				"creationdate" : null,
				"tipoproduto": "P",
				"artcomposto" : 0,			
				"destinoPedido" : null
			},
			{
				"codigo":"15",
				"designacao": "Sandes Omelete",
				"designacaoabrev": "Sandes de Omlete",
				"foto" : "/img/sandes_omelete.jpg",
				"familia_x" : true,
				"familia": 1,
				"subfamilia_x":true,
				"subfamilia":2,
				"artigopos":false,
				"artigopos_rest":true,
				"gerapedidos":true,
				"obrigagosto":0,
				"lasteditdate":null,
				"creationdate" : null,
				"tipoproduto": "P",
				"artcomposto" : 0,			
				"destinoPedido" : null
			},
			{
				"codigo":"16",
				"designacao": "Sandes de Delícias do mar",
				"designacaoabrev": "Sandes de Delícias do mar",
				"foto" : "/img/sandesdelicias.png",
				"familia_x" : true,
				"familia": 1,
				"subfamilia_x":true,
				"subfamilia":2,
				"artigopos":false,
				"artigopos_rest":true,
				"gerapedidos":true,
				"obrigagosto":0,
				"lasteditdate":null,
				"creationdate" : null,
				"tipoproduto": "P",
				"artcomposto" : 0,			
				"destinoPedido" : null
			},
			{
				"codigo":"17",
				"designacao": "Sandes Vegan",
				"designacaoabrev": "Sandes Vegan",
				"foto" : "/img/sandesvegan.jpg",
				"familia_x" : true,
				"familia": 1,
				"subfamilia_x":true,
				"subfamilia":2,
				"artigopos":false,
				"artigopos_rest":true,
				"gerapedidos":true,
				"obrigagosto":0,
				"lasteditdate":null,
				"creationdate" : null,
				"tipoproduto": "P",
				"artcomposto" : 0,			
				"destinoPedido" : null
			},
			{
				"codigo":"18",
				"designacao": "7UP",
				"designacaoabrev": "7UP",
				"foto" : "/img/7up.jpg",
				"familia_x" : true,
				"familia": 3,
				"subfamilia_x":false,
				"subfamilia":0,
				"artigopos":false,
				"artigopos_rest":true,
				"gerapedidos":true,
				"obrigagosto":0,
				"lasteditdate":null,
				"creationdate" : null,
				"tipoproduto": "P",
				"artcomposto" : 0,			
				"destinoPedido" : null
			},
			{
				"codigo":"19",
				"designacao": "Café Cortado",
				"designacaoabrev": "Café Cortado",
				"foto" : "/img/cafecortado.jpg",
				"familia_x" : true,
				"familia": 3,
				"subfamilia_x":false,
				"subfamilia":0,
				"artigopos":false,
				"artigopos_rest":true,
				"gerapedidos":true,
				"obrigagosto":0,
				"lasteditdate":null,
				"creationdate" : null,
				"tipoproduto": "P",
				"artcomposto" : 0,			
				"destinoPedido" : null
			},{
				"codigo":"20",
				"designacao": "Galão",
				"designacaoabrev": "Galão",
				"foto" : "/img/galao.jpg",
				"familia_x" : true,
				"familia": 3,
				"subfamilia_x":false,
				"subfamilia":0,
				"artigopos":false,
				"artigopos_rest":true,
				"gerapedidos":true,
				"obrigagosto":0,
				"lasteditdate":null,
				"creationdate" : null,
				"tipoproduto": "P",
				"artcomposto" : 0,			
				"destinoPedido" : null
			},{
				"codigo":"21",
				"designacao": "Copo de Leite",
				"designacaoabrev": "Copo de Leite",
				"foto" : "/img/leite.jpg",
				"familia_x" : true,
				"familia": 3,
				"subfamilia_x":false,
				"subfamilia":0,
				"artigopos":false,
				"artigopos_rest":true,
				"gerapedidos":true,
				"obrigagosto":0,
				"lasteditdate":null,
				"creationdate" : null,
				"tipoproduto": "P",
				"artcomposto" : 0,			
				"destinoPedido" : null
			},{
				"codigo":"22",
				"designacao": "Vinho da Casa",
				"designacaoabrev": "Vinho da Casa",
				"foto" : "/img/vinhocasa.jpg",
				"familia_x" : true,
				"familia": 3,
				"subfamilia_x":false,
				"subfamilia":0,
				"artigopos":false,
				"artigopos_rest":true,
				"gerapedidos":true,
				"obrigagosto":0,
				"lasteditdate":null,
				"creationdate" : null,
				"tipoproduto": "P",
				"artcomposto" : 0,			
				"destinoPedido" : null
			},{
				"codigo":"23",
				"designacao": "Whiskey",
				"designacaoabrev": "Whiskey",
				"foto" : "/img/whiskey.jpg",
				"familia_x" : true,
				"familia": 3,
				"subfamilia_x":false,
				"subfamilia":0,
				"artigopos":false,
				"artigopos_rest":true,
				"gerapedidos":true,
				"obrigagosto":0,
				"lasteditdate":null,
				"creationdate" : null,
				"tipoproduto": "P",
				"artcomposto" : 0,			
				"destinoPedido" : null
			},{
				"codigo":"24",
				"designacao": "Whiskey Single Malte",
				"designacaoabrev": "Whiskey Single Malte",
				"foto" : "/img/whiskeysingle.jpg",
				"familia_x" : true,
				"familia": 3,
				"subfamilia_x":false,
				"subfamilia":0,
				"artigopos":false,
				"artigopos_rest":true,
				"gerapedidos":true,
				"obrigagosto":0,
				"lasteditdate":null,
				"creationdate" : null,
				"tipoproduto": "P",
				"artcomposto" : 0,			
				"destinoPedido" : null
			},{
				"codigo":"25",
				"designacao": "Torrada",
				"designacaoabrev": "Torrada",
				"foto" : "/img/torrada.jpg",
				"familia_x" : true,
				"familia": 1,
				"subfamilia_x":false,
				"subfamilia":0,
				"artigopos":false,
				"artigopos_rest":true,
				"gerapedidos":true,
				"obrigagosto":0,
				"lasteditdate":null,
				"creationdate" : null,
				"tipoproduto": "P",
				"artcomposto" : 0,			
				"destinoPedido" : null
			},{
				"codigo":"26",
				"designacao": "Croissant",
				"designacaoabrev": "Croissant",
				"foto" : "/img/croissant.jpg",
				"familia_x" : true,
				"familia": 1,
				"subfamilia_x":false,
				"subfamilia":0,
				"artigopos":false,
				"artigopos_rest":true,
				"gerapedidos":true,
				"obrigagosto":0,
				"lasteditdate":null,
				"creationdate" : null,
				"tipoproduto": "P",
				"artcomposto" : 0,			
				"destinoPedido" : null
			},{
				"codigo":"27",
				"designacao": "Croissant com Café",
				"designacaoabrev": "Croissant com Café",
				"foto" : "/img/croissant_com_cafe.jpg",
				"familia_x" : true,
				"familia": 1,
				"subfamilia_x":false,
				"subfamilia":0,
				"artigopos":false,
				"artigopos_rest":true,
				"gerapedidos":true,
				"obrigagosto":0,
				"lasteditdate":null,
				"creationdate" : null,
				"tipoproduto": "P",
				"artcomposto" : 0,			
				"destinoPedido" : null
			},{
				"codigo":"28",
				"designacao": "Croissant Misto",
				"designacaoabrev": "Croissant Misto",
				"foto" : "/img/croissantmisto.jpg",
				"familia_x" : true,
				"familia": 1,
				"subfamilia_x":false,
				"subfamilia":0,
				"artigopos":false,
				"artigopos_rest":true,
				"gerapedidos":true,
				"obrigagosto":0,
				"lasteditdate":null,
				"creationdate" : null,
				"tipoproduto": "P",
				"artcomposto" : 0,			
				"destinoPedido" : null
			},{
				"codigo":"29",
				"designacao": "Baguete com Queijo Parmesão",
				"designacaoabrev": "Baguete com Queijo Parmesão",
				"foto" : "/img/baguete_queijo_parmesao.jpg",
				"familia_x" : true,
				"familia": 1,
				"subfamilia_x":false,
				"subfamilia":0,
				"artigopos":false,
				"artigopos_rest":true,
				"gerapedidos":true,
				"obrigagosto":0,
				"lasteditdate":null,
				"creationdate" : null,
				"tipoproduto": "P",
				"artcomposto" : 0,			
				"destinoPedido" : null
			},{
				"codigo":"30",
				"designacao": "Batata Frita",
				"designacaoabrev": "Batata Frita",
				"foto" : "/img/batatafrita.png",
				"familia_x" : true,
				"familia": 2,
				"subfamilia_x":false,
				"subfamilia":0,
				"artigopos":false,
				"artigopos_rest":true,
				"gerapedidos":true,
				"obrigagosto":0,
				"lasteditdate":null,
				"creationdate" : null,
				"tipoproduto": "P",
				"artcomposto" : 0,			
				"destinoPedido" : null
			},{
				"codigo":"31",
				"designacao": "Bifanas",
				"designacaoabrev": "Bifanas",
				"foto" : "/img/bifanas.jpg",
				"familia_x" : true,
				"familia": 2,
				"subfamilia_x":true,
				"subfamilia":1,
				"artigopos":false,
				"artigopos_rest":true,
				"gerapedidos":true,
				"obrigagosto":0,
				"lasteditdate":null,
				"creationdate" : null,
				"tipoproduto": "P",
				"artcomposto" : 0,			
				"destinoPedido" : null
			},{
				"codigo":"32",
				"designacao": "Hamburger",
				"designacaoabrev": "Hamburger",
				"foto" : "/img/hamburger.jpg",
				"familia_x" : true,
				"familia": 1,
				"subfamilia_x":true,
				"subfamilia":1,
				"artigopos":false,
				"artigopos_rest":true,
				"gerapedidos":true,
				"obrigagosto":0,
				"lasteditdate":null,
				"creationdate" : null,
				"tipoproduto": "P",
				"artcomposto" : 0,			
				"destinoPedido" : null
			},{
				"codigo":"33",
				"designacao": "Feijoada de Lulas",
				"designacaoabrev": "Feijoada de Lulas",
				"foto" : "/img/feijoada.jpg",
				"familia_x" : true,
				"familia": 2,
				"subfamilia_x":true,
				"subfamilia":2,
				"artigopos":false,
				"artigopos_rest":true,
				"gerapedidos":true,
				"obrigagosto":0,
				"lasteditdate":null,
				"creationdate" : null,
				"tipoproduto": "P",
				"artcomposto" : 0,			
				"destinoPedido" : null
			},{
				"codigo":"34",
				"designacao": "Chamussas",
				"designacaoabrev": "Chamussas",
				"foto" : "/img/chamussas.jpg",
				"familia_x" : true,
				"familia": 2,
				"subfamilia_x":false,
				"subfamilia":0,
				"artigopos":false,
				"artigopos_rest":true,
				"gerapedidos":true,
				"obrigagosto":0,
				"lasteditdate":null,
				"creationdate" : null,
				"tipoproduto": "P",
				"artcomposto" : 0,			
				"destinoPedido" : null
			},{
				"codigo":"35",
				"designacao": "Omelete",
				"designacaoabrev": "Omelete",
				"foto" : "/img/omelete.jpg",
				"familia_x" : true,
				"familia": 2,
				"subfamilia_x":false,
				"subfamilia":0,
				"artigopos":false,
				"artigopos_rest":true,
				"gerapedidos":true,
				"obrigagosto":0,
				"lasteditdate":null,
				"creationdate" : null,
				"tipoproduto": "P",
				"artcomposto" : 0,			
				"destinoPedido" : null
			}
			
		],
		"precstk": [
            {
				"codigo":"1",
				"espaco":"Todos",
				"precario":1,
				"venda_siva": 3.0,
				"venda_civa":4.0,			
				"descl1":0,
				"descl2":0,
				"margem":0,
				"tara":0,
				"lasteditdate":null,
				"creationdate":null
			},
			{
				"codigo":"2",
				"espaco":"Todos",
				"precario":1,
				"venda_siva": 3.0,
				"venda_civa":4.0,			
				"descl1":0,
				"descl2":0,
				"margem":0,
				"tara":0,
				"lasteditdate":null,
				"creationdate":null
			},
			{
				"codigo":"3",
				"espaco":"Todos",
				"precario":1,
				"venda_siva": 3.0,
				"venda_civa":4.0,			
				"descl1":0,
				"descl2":0,
				"margem":0,
				"tara":0,
				"lasteditdate":null,
				"creationdate":null
			},
			{
				"codigo":"4",
				"espaco":"Todos",
				"precario":1,
				"venda_siva": 3.0,
				"venda_civa":4.0,			
				"descl1":0,
				"descl2":0,
				"margem":0,
				"tara":0,
				"lasteditdate":null,
				"creationdate":null
			},
			{
				"codigo":"5",
				"espaco":"Todos",
				"precario":1,
				"venda_siva": 3.0,
				"venda_civa":4.0,			
				"descl1":0,
				"descl2":0,
				"margem":0,
				"tara":0,
				"lasteditdate":null,
				"creationdate":null
			},
			{
				"codigo":"6",
				"espaco":"Todos",
				"precario":2,
				"venda_siva": 3.0,
				"venda_civa":3.5,			
				"descl1":0,
				"descl2":0,
				"margem":0,
				"tara":0,
				"lasteditdate":null,
				"creationdate":null
			},
			{
				"codigo":"6",
				"espaco":"Todos",
				"precario":3,
				"venda_siva": 3.0,
				"venda_civa":7.0,			
				"descl1":0,
				"descl2":0,
				"margem":0,
				"tara":0,
				"lasteditdate":null,
				"creationdate":null
			},
			{
				"codigo":"7",
				"espaco":"Todos",
				"precario":1,
				"venda_siva": 3.0,
				"venda_civa":7.0,			
				"descl1":0,
				"descl2":0,
				"margem":0,
				"tara":0,
				"lasteditdate":null,
				"creationdate":null
			},
			{
				"codigo":"8",
				"espaco":"Todos",
				"precario":1,
				"venda_siva": 3.0,
				"venda_civa":1.0,			
				"descl1":0,
				"descl2":0,
				"margem":0,
				"tara":0,
				"lasteditdate":null,
				"creationdate":null
			},
			{
				"codigo":"9",
				"espaco":"Todos",
				"precario":1,
				"venda_siva": 3.0,
				"venda_civa":11.20,			
				"descl1":0,
				"descl2":0,
				"margem":0,
				"tara":0,
				"lasteditdate":null,
				"creationdate":null
			},
			{
				"codigo":"10",
				"espaco":"Todos",
				"precario":1,
				"venda_siva": 3.0,
				"venda_civa":0.65,			
				"descl1":0,
				"descl2":0,
				"margem":0,
				"tara":0,
				"lasteditdate":null,
				"creationdate":null
			},
			{
				"codigo":"11",
				"espaco":"Todos",
				"precario":1,
				"venda_siva": 3.0,
				"venda_civa":4.5,			
				"descl1":0,
				"descl2":0,
				"margem":0,
				"tara":0,
				"lasteditdate":null,
				"creationdate":null
			},
			{
				"codigo":"12",
				"espaco":"Todos",
				"precario":1,
				"venda_siva": 5.0,
				"venda_civa":8.5,			
				"descl1":0,
				"descl2":0,
				"margem":0,
				"tara":0,
				"lasteditdate":null,
				"creationdate":null
            },
			{
				"codigo":"13",
				"espaco":"Todos",
				"precario":1,
				"venda_siva": 0,
				"venda_civa":0,			
				"descl1":0,
				"descl2":0,
				"margem":0,
				"tara":0,
				"lasteditdate":null,
				"creationdate":null
            },
			{
				"codigo":"14",
				"espaco":"Todos",
				"precario":1,
				"venda_siva": 0,
				"venda_civa":0,			
				"descl1":0,
				"descl2":0,
				"margem":0,
				"tara":0,
				"lasteditdate":null,
				"creationdate":null
            },
			{
				"codigo":"15",
				"espaco":"Todos",
				"precario":1,
				"venda_siva": 5,
				"venda_civa":6,			
				"descl1":0,
				"descl2":0,
				"margem":0,
				"tara":0,
				"lasteditdate":null,
				"creationdate":null
            },
			{
				"codigo":"16",
				"espaco":"Todos",
				"precario":1,
				"venda_siva": 5,
				"venda_civa":7,			
				"descl1":0,
				"descl2":0,
				"margem":0,
				"tara":0,
				"lasteditdate":null,
				"creationdate":null
            },{
				"codigo":"17",
				"espaco":"Todos",
				"precario":1,
				"venda_siva": 5,
				"venda_civa":7,			
				"descl1":0,
				"descl2":0,
				"margem":0,
				"tara":0,
				"lasteditdate":null,
				"creationdate":null
            },{
				"codigo":"18",
				"espaco":"Todos",
				"precario":1,
				"venda_siva": 1,
				"venda_civa":1.5,			
				"descl1":0,
				"descl2":0,
				"margem":0,
				"tara":0,
				"lasteditdate":null,
				"creationdate":null
            },{
				"codigo":"19",
				"espaco":"Todos",
				"precario":1,
				"venda_siva": 0.9,
				"venda_civa":1,			
				"descl1":0,
				"descl2":0,
				"margem":0,
				"tara":0,
				"lasteditdate":null,
				"creationdate":null
            },{
				"codigo":"20",
				"espaco":"Todos",
				"precario":1,
				"venda_siva": 1.5,
				"venda_civa":2,			
				"descl1":0,
				"descl2":0,
				"margem":0,
				"tara":0,
				"lasteditdate":null,
				"creationdate":null
            },{
				"codigo":"21",
				"espaco":"Todos",
				"precario":1,
				"venda_siva": 5,
				"venda_civa":7,			
				"descl1":0,
				"descl2":0,
				"margem":0,
				"tara":0,
				"lasteditdate":null,
				"creationdate":null
            },{
				"codigo":"22",
				"espaco":"Todos",
				"precario":1,
				"venda_siva": 5,
				"venda_civa":7,			
				"descl1":0,
				"descl2":0,
				"margem":0,
				"tara":0,
				"lasteditdate":null,
				"creationdate":null
            },{
				"codigo":"23",
				"espaco":"Todos",
				"precario":1,
				"venda_siva": 5,
				"venda_civa":15,			
				"descl1":0,
				"descl2":0,
				"margem":0,
				"tara":0,
				"lasteditdate":null,
				"creationdate":null
            },{
				"codigo":"24",
				"espaco":"Todos",
				"precario":1,
				"venda_siva": 5,
				"venda_civa":17,			
				"descl1":0,
				"descl2":0,
				"margem":0,
				"tara":0,
				"lasteditdate":null,
				"creationdate":null
            },{
				"codigo":"25",
				"espaco":"Todos",
				"precario":1,
				"venda_siva": 1.5,
				"venda_civa":2,			
				"descl1":0,
				"descl2":0,
				"margem":0,
				"tara":0,
				"lasteditdate":null,
				"creationdate":null
            },{
				"codigo":"26",
				"espaco":"Todos",
				"precario":1,
				"venda_siva": 1.5,
				"venda_civa":2,			
				"descl1":0,
				"descl2":0,
				"margem":0,
				"tara":0,
				"lasteditdate":null,
				"creationdate":null
            },{
				"codigo":"27",
				"espaco":"Todos",
				"precario":1,
				"venda_siva": 1.5,
				"venda_civa":4,			
				"descl1":0,
				"descl2":0,
				"margem":0,
				"tara":0,
				"lasteditdate":null,
				"creationdate":null
            },{
				"codigo":"28",
				"espaco":"Todos",
				"precario":1,
				"venda_siva": 1.5,
				"venda_civa":3.5,			
				"descl1":0,
				"descl2":0,
				"margem":0,
				"tara":0,
				"lasteditdate":null,
				"creationdate":null
            },{
				"codigo":"29",
				"espaco":"Todos",
				"precario":1,
				"venda_siva": 1.5,
				"venda_civa":3.5,			
				"descl1":0,
				"descl2":0,
				"margem":0,
				"tara":0,
				"lasteditdate":null,
				"creationdate":null
            },{
				"codigo":"30",
				"espaco":"Todos",
				"precario":1,
				"venda_siva": 1.5,
				"venda_civa":3.5,			
				"descl1":0,
				"descl2":0,
				"margem":0,
				"tara":0,
				"lasteditdate":null,
				"creationdate":null
            },{
				"codigo":"31",
				"espaco":"Todos",
				"precario":1,
				"venda_siva": 1.5,
				"venda_civa":3.5,			
				"descl1":0,
				"descl2":0,
				"margem":0,
				"tara":0,
				"lasteditdate":null,
				"creationdate":null
            },{
				"codigo":"32",
				"espaco":"Todos",
				"precario":1,
				"venda_siva": 1.5,
				"venda_civa":3.5,			
				"descl1":0,
				"descl2":0,
				"margem":0,
				"tara":0,
				"lasteditdate":null,
				"creationdate":null
            },{
				"codigo":"33",
				"espaco":"Todos",
				"precario":1,
				"venda_siva": 1.5,
				"venda_civa":3.5,			
				"descl1":0,
				"descl2":0,
				"margem":0,
				"tara":0,
				"lasteditdate":null,
				"creationdate":null
            },{
				"codigo":"34",
				"espaco":"Todos",
				"precario":1,
				"venda_siva": 1.5,
				"venda_civa":3.5,			
				"descl1":0,
				"descl2":0,
				"margem":0,
				"tara":0,
				"lasteditdate":null,
				"creationdate":null
            },{
				"codigo":"35",
				"espaco":"Todos",
				"precario":1,
				"venda_siva": 1.5,
				"venda_civa":3.5,			
				"descl1":0,
				"descl2":0,
				"margem":0,
				"tara":0,
				"lasteditdate":null,
				"creationdate":null
            }
		],
		"gostos":[
			{
				"codigo":"10",
				"sequencial":1,
				"gosto":"Italina",
				"lasteditdate":null,
				"creationdate":null
			},
			{
				"codigo":"10",
				"sequencial":2,
				"gosto":"Cheio",
				"lasteditdate":null,
				"creationdate":null
			},
			{
				"codigo":"8",
				"sequencial":3,
				"gosto":"C/ gelo",
				"lasteditdate":null,
				"creationdate":null
			},
			{
				"codigo":"8",
				"sequencial":4,
				"gosto":"C/ limão",
				"lasteditdate":null,
				"creationdate":null
			}
		],
		"composicoes":[
			{
				"codigo_pai":"12",
				"codigo_filho":"13",
				"quantidade":1,
				"percentagem":0,
				"desperdicio":0,
				"obs":null,
				"lasteditdate":null,
				"creationdate":null
			},
			{
				"codigo_pai":"12",
				"codigo_filho":"14",
				"quantidade":1,
				"percentagem":0,
				"desperdicio":0,
				"obs":null,
				"lasteditdate":null,
				"creationdate":null
			}
		]
	    
}